<svg xmlns="http://www.w3.org/2000/svg" width="376.47" height="376.47" viewBox="0 0 376.47 376.47">
  <g id="Group_57" data-name="Group 57" transform="translate(-566.463 -92.012)" opacity="0.07">
    <circle id="Ellipse_37" data-name="Ellipse 37" cx="188.235" cy="188.235" r="188.235" transform="translate(566.463 92.012)" fill="#b9f4bc"/>
    <g id="vuejs-seeklogo.com" transform="translate(644.212 207.051)">
      <path id="Path_73" data-name="Path 73" d="M176.777,0h44.194L110.486,190.588,0,0H84.522l25.964,44.194L135.9,0Z" fill="#41b883"/>
      <path id="Path_74" data-name="Path 74" d="M0,0,110.486,190.588,220.972,0H176.777L110.486,114.353,43.642,0Z" fill="#41b883"/>
      <path id="Path_75" data-name="Path 75" d="M50.56,0,117.4,114.905,183.7,0h-40.88L117.4,44.194,91.44,0Z" transform="translate(-6.918)" fill="#35495e"/>
    </g>
  </g>
</svg>
